포트폴리오 구성하기
…
https://mba.tuck.dartmouth.edu/pages/faculty/ken.french/data_library.html

해당 데이터를 분석하기 위해 사이트에 접속하여 데이터를 내려받아 압축을 푼 후 csv 파일을 불러오는 방법 보다는, R 내에서 데이터를 다운로드 받은 후 불러오는 것이 훨씬 효율적입니다. 또한 이미 개발된 패키지를 사용할 경우 이러한 작업을 매우 쉽게 할수도 있습니다.

https://nareal.github.io/frenchdata/articles/basic_usage.html

R에서 해당 패키지를 사용해 팩터 데이터를 다운로드 받은 후 성과를 확인해보도록 하겠습니다.

library(frenchdata)
data_sets = get_french_data_list()

data_sets$files_list

## # A tibble: 297 x 3
##    name                                                file_url      details_url
##    <chr>                                               <chr>         <chr>      
##  1 Fama/French 3 Factors                               ftp/F-F_Rese~ Data_Libra~
##  2 Fama/French 3 Factors [Weekly]                      ftp/F-F_Rese~ Data_Libra~
##  3 Fama/French 3 Factors [Daily]                       ftp/F-F_Rese~ Data_Libra~
##  4 Fama/French 5 Factors (2x3)                         ftp/F-F_Rese~ Data_Libra~
##  5 Fama/French 5 Factors (2x3) [Daily]                 ftp/F-F_Rese~ Data_Libra~
##  6 Portfolios Formed on Size                           ftp/Portfoli~ Data_Libra~
##  7 Portfolios Formed on Size [ex.Dividends]            ftp/Portfoli~ Data_Libra~
##  8 Portfolios Formed on Size [Daily]                   ftp/Portfoli~ Data_Libra~
##  9 Portfolios Formed on Book-to-Market                 ftp/Portfoli~ Data_Libra~
## 10 Portfolios Formed on Book-to-Market [ex. Dividends] ftp/Portfoli~ Data_Libra~
## # ... with 287 more rows
…
fs_roll = fs %>% arrange(종목코드, 계정, 기준일) %>%
  group_by(종목코드, 계정) %>%
  mutate(rollsum = roll_sum(값, n = 4, align = 'right', fill = NA)) %>%
  slice(n()) %>%
  mutate(rollsum = case_when(
    계정 %in% c('자본', '자산') ~ rollsum / 4,
    TRUE ~ rollsum
  )) %>%
  ungroup()

fs_roll

## # A tibble: 11,384 x 6
##    계정                     기준일        값 종목코드 공시구분 rollsum
##    <chr>                    <chr>      <dbl> <chr>    <chr>      <dbl>
##  1 당기순이익               2022-06-30    65 000020   q           193 
##  2 매출총이익               2022-06-30   468 000020   q          1666 
##  3 영업활동으로인한현금흐름 2022-06-30    48 000020   q           423 
##  4 자본                     2022-06-30  3652 000020   q          3596.
##  5 자산                     2022-06-30  4639 000020   q          4549 
##  6 당기순이익               2022-06-30    12 000040   q          -104 
##  7 매출총이익               2022-06-30    42 000040   q           158 
##  8 영업활동으로인한현금흐름 2022-06-30    -2 000040   q          -130 
##  9 자본                     2022-06-30   479 000040   q           492 
## 10 자산                     2022-06-30  1640 000040   q          1698.
## # ... with 11,374 more rows
…
data_bind  = 
  ticker %>%
  left_join(sector, by = c('종목코드' = 'CMP_CD')) %>%
  left_join(fs_roll_pivot %>% select(종목코드, ROE, GPA, CFO)) %>%
  left_join(value) %>%
  left_join(ret_1yr) %>%
  left_join(k_ratio %>% select(종목코드, k_ratio)) 

data_bind = data_bind %>%
  mutate(SEC_NM_KOR = replace_na(SEC_NM_KOR, '기타')) %>% as.tibble()

data_bind

## # A tibble: 2,294 x 13
##    종목코드 종목명      SEC_NM_KOR      ROE     GPA     CFO      DY   PBR    PCR
##    <chr>    <chr>       <chr>         <dbl>   <dbl>   <dbl>   <dbl> <dbl>  <dbl>
##  1 000020   동화약품    건강관리    0.0537   0.366   0.0930  0.0208 0.672  5.71 
##  2 000040   KR모터스    경기관련~  -0.211    0.0931 -0.0766 NA      1.17  NA    
##  3 000050   경방        경기관련~   0.0257   0.115   0.0485  0.0116 0.39   4.76 
##  4 000060   메리츠화재  금융        0.438   NA       0.0445  0.0209 1.81   2.73 
##  5 000070   삼양홀딩스  필수소비재  0.0780   0.146   0.0366  0.047  0.222  3.33 
##  6 000080   하이트진로  필수소비재  0.0876   0.276   0.115   0.0325 1.58   4.23 
##  7 000100   유한양행    건강관리    0.0493   0.215   0.0592  0.0073 2.09  27.6  
##  8 000120   CJ대한통운  산업재      0.0470   0.126   0.0444 NA      0.460  4.56 
##  9 000140   하이트진로~ 필수소비재  0.0818   0.238   0.0950  0.0448 0.213  0.589
## 10 000150   두산        산업재     -0.00722  0.0933  0.0136  0.0254 0.142  3.59 
## # ... with 2,284 more rows, and 4 more variables: PER <dbl>, PSR <dbl>,
## #   ret <dbl>, k_ratio <dbl>
…
이번에는 각 섹터별로 아웃라이어를 제거한 후 순위와 Z-Score를 구하도록 하겠습니다. 첫번째로 퀄리티 지표의 Z-Score를 계산합니다.

z_quality = data_bind %>% select(종목코드, SEC_NM_KOR, ROE, GPA, CFO) %>%
  group_by(SEC_NM_KOR) %>%
  mutate(across(c(ROE, GPA, CFO), .fns = ~min_rank(desc(.)), .names = "rank_{col}")) %>%  
  mutate(across(c(rank_ROE, rank_GPA, rank_CFO), .fns = ~scale(.), .names = "z_{col}")) %>%
  mutate(z_quality = rowSums(across(contains('z_rank'))))

data_bind = data_bind %>%
  left_join(z_quality %>% select(종목코드, z_quality))

data_bind

## # A tibble: 2,294 x 14
##    종목코드 종목명      SEC_NM_KOR      ROE     GPA     CFO      DY   PBR    PCR
##    <chr>    <chr>       <chr>         <dbl>   <dbl>   <dbl>   <dbl> <dbl>  <dbl>
##  1 000020   동화약품    건강관리    0.0537   0.366   0.0930  0.0208 0.672  5.71 
##  2 000040   KR모터스    경기관련~  -0.211    0.0931 -0.0766 NA      1.17  NA    
##  3 000050   경방        경기관련~   0.0257   0.115   0.0485  0.0116 0.39   4.76 
##  4 000060   메리츠화재  금융        0.438   NA       0.0445  0.0209 1.81   2.73 
##  5 000070   삼양홀딩스  필수소비재  0.0780   0.146   0.0366  0.047  0.222  3.33 
##  6 000080   하이트진로  필수소비재  0.0876   0.276   0.115   0.0325 1.58   4.23 
##  7 000100   유한양행    건강관리    0.0493   0.215   0.0592  0.0073 2.09  27.6  
##  8 000120   CJ대한통운  산업재      0.0470   0.126   0.0444 NA      0.460  4.56 
##  9 000140   하이트진로~ 필수소비재  0.0818   0.238   0.0950  0.0448 0.213  0.589
## 10 000150   두산        산업재     -0.00722  0.0933  0.0136  0.0254 0.142  3.59 
## # ... with 2,284 more rows, and 5 more variables: PER <dbl>, PSR <dbl>,
## #   ret <dbl>, k_ratio <dbl>, z_quality <dbl>
…
