퀀트 투자 전문가 과정 - 5 API를 이용한 데이터 수집
…
다시 시작한 후 API Key를 불러옵니다.

RIINGO_TOKEN = Sys.getenv("RIINGO_TOKEN")

7.2 데이터 다운로드

R에서 tiingo를 사용할 수 있게 해주는 riingo 패키지를 이용해 데이터를 받아보도록 하겠습니다. 먼저 tiingo에서 제공하는 종목은 어떠한 것이 있는지 티커 정보들을 확인해봅니다.

# install.packages("riingo")
library(riingo)

tickers = supported_tickers()
tickers

# A tibble: 106,998 × 6
   ticker exchange assetType priceCurr…¹ startDate           endDate            
   <chr>  <chr>    <chr>     <chr>       <dttm>              <dttm>             
 1 000001 SHE      Stock     CNY         2007-01-04 00:00:00 2023-01-18 00:00:00
 2 000002 SHE      Stock     CNY         2007-01-04 00:00:00 2023-01-18 00:00:00
 3 000003 SHE      Stock     CNY         NA                  NA                 
 4 000004 SHE      Stock     CNY         2007-08-31 00:00:00 2023-01-18 00:00:00
 5 000005 SHE      Stock     CNY         2007-08-31 00:00:00 2023-01-18 00:00:00
 6 000006 SHE      Stock     CNY         2007-01-04 00:00:00 2023-01-18 00:00:00
 7 000007 SHE      Stock     CNY         2007-08-31 00:00:00 2023-01-18 00:00:00
 8 000008 SHE      Stock     CNY         2007-01-04 00:00:00 2023-01-18 00:00:00
 9 000009 SHE      Stock     CNY         2007-01-05 00:00:00 2023-01-18 00:00:00
10 000010 SHE      Stock     CNY         2007-08-31 00:00:00 2023-01-18 00:00:00
# … with 106,988 more rows, and abbreviated variable name ¹​priceCurrency

ticker(티커), exchange(거래소), assetType(주식 종류), priceCurrency(거래 통화), startDate(시작일), endDate(마감일) 정보가 표시됩니다. 거래소와 통화 별 종목이 몇개가 있는지 확인해보도록 하겠습니다.

library(dplyr)

tickers %>% group_by(exchange, priceCurrency) %>% summarize(n = n()) %>%
  arrange(priceCurrency, desc(n))

# A tibble: 27 × 3
# Groups:   exchange [24]
   exchange priceCurrency     n
   <chr>    <chr>         <int>
 1 ASX      AUD             169
 2 SHE      CNY            2570
 3 SHG      CNY            1936
 4 SHEB     HKD              42
 5 SHE      HKD              12
 6 NMFQS    USD           46245
 7 PINK     USD           14416
 8 NASDAQ   USD           13113
 9 NYSE     USD            8170
10 OTCGREY  USD            4011
# … with 17 more rows
…
riingo_meta("AAPL")

# A tibble: 1 × 6
  ticker name      description   startDate           endDate             excha…¹
  <chr>  <chr>     <chr>         <dttm>              <dttm>              <chr>  
1 AAPL   Apple Inc Apple Inc. (… 1980-12-12 00:00:00 2023-01-18 00:00:00 NASDAQ 
# … with abbreviated variable name ¹​exchangeCode

riingo_meta() 함수 내에 티커를 입력하면 티커, 종목명, 사업내역 등 대략적인 정보를 받아올 수 있습니다.

이제 주가를 받아보도록 합시다.

riingo_prices("AAPL")

# A tibble: 251 × 14
   ticker date                close  high   low  open    volume adjClose adjHigh
   <chr>  <dttm>              <dbl> <dbl> <dbl> <dbl>     <int>    <dbl>   <dbl>
 1 AAPL   2022-01-19 00:00:00  166.  171.  166.  170   92914792     165.    170.
 2 AAPL   2022-01-20 00:00:00  165.  170.  164.  167.  91420515     163.    168.
 3 AAPL   2022-01-21 00:00:00  162.  166.  162.  164. 122848858     161.    165.
 4 AAPL   2022-01-24 00:00:00  162.  162.  155.  160. 162706686     160.    161.
 5 AAPL   2022-01-25 00:00:00  160.  163.  157.  159. 115798367     159.    162.
 6 AAPL   2022-01-26 00:00:00  160.  164.  158.  164. 108275308     159.    163.
 7 AAPL   2022-01-27 00:00:00  159.  164.  158.  162. 121954638     158.    163.
 8 AAPL   2022-01-28 00:00:00  170.  170.  163.  166. 179935660     169.    169.
 9 AAPL   2022-01-31 00:00:00  175.  175   170.  170. 115541590     174.    174.
10 AAPL   2022-02-01 00:00:00  175.  175.  172.  174.  86213911     173.    174.
# … with 241 more rows, and 5 more variables: adjLow <dbl>, adjOpen <dbl>,
#   adjVolume <int>, divCash <dbl>, splitFactor <dbl>

riingo_prices() 함수 내에 티커를 입력하면 close(종가), high(고가), low(저가), open(시가), volumne(거래량) 및 수정주가와 divCash(현금 배당), splitFactor(주식분할 조정계수)까지 데이터를 받을 수 있습니다.

이번에는 일별 가치지표를 받아보도록 합니다. (무료 계정의 경우 다우존스 30 지수에 포함되는 종목 정보만 제공합니다.)

riingo_fundamentals_metrics('AAPL')

# A tibble: 254 × 7
   ticker date                    marketCap enterprise…¹ peRatio pbRatio trail…²
   <chr>  <dttm>                      <dbl>        <dbl>   <dbl>   <dbl>   <dbl>
 1 AAPL   2022-01-19 00:00:00 2727235373310      2.81e12    27.1    37.9    1.12
 2 AAPL   2022-01-20 00:00:00 2699016370470      2.78e12    26.8    37.5    1.11
 3 AAPL   2022-01-21 00:00:00 2664562936770      2.75e12    26.5    37.0    1.10
 4 AAPL   2022-01-24 00:00:00 2651601883140      2.74e12    26.4    36.9    1.09
 5 AAPL   2022-01-25 00:00:00 2621414112660      2.71e12    26.1    36.4    1.08
 6 AAPL   2022-01-26 00:00:00 2619937536930      2.71e12    26.1    36.4    1.08
 7 AAPL   2022-01-27 00:00:00 2612226530340      2.70e12    26.0    36.3    1.08
 8 AAPL   2022-01-28 00:00:00 2779690385530      2.87e12    27.6    38.6    1.15
 9 AAPL   2022-01-31 00:00:00 2852311897980      2.94e12    28.4    39.7    1.18
10 AAPL   2022-02-01 00:00:00 2849537593010      2.94e12    28.3    39.6    1.17
# … with 244 more rows, and abbreviated variable names ¹​enterpriseVal,
#   ²​trailingPEG1Y
…
티블 내에 다시 데이터프레임이 들어간 형태입니다. 이 중 필요한 데이터만 선택해 묶음을 풀어주면 됩니다.

library(tidyr)

df %>%
  select(ticker, date, year, quarter, balanceSheet) %>%
  unnest(cols = c('balanceSheet'))

# A tibble: 104 × 6
   ticker date                 year quarter dataCode                     value
   <chr>  <dttm>              <int>   <int> <chr>                        <dbl>
 1 AAPL   2022-09-24 00:00:00  2022       4 liabilitiesCurrent    153982000000
 2 AAPL   2022-09-24 00:00:00  2022       4 equity                 50672000000
 3 AAPL   2022-09-24 00:00:00  2022       4 taxLiabilities                   0
 4 AAPL   2022-09-24 00:00:00  2022       4 liabilitiesNonCurrent 148101000000
 5 AAPL   2022-09-24 00:00:00  2022       4 retainedEarnings       -3068000000
 6 AAPL   2022-09-24 00:00:00  2022       4 debtCurrent            21110000000
 7 AAPL   2022-09-24 00:00:00  2022       4 taxAssets                        0
 8 AAPL   2022-09-24 00:00:00  2022       4 assetsNonCurrent      217350000000
 9 AAPL   2022-09-24 00:00:00  2022       4 acctPay                64115000000
10 AAPL   2022-09-24 00:00:00  2022       4 debt                  120069000000
# … with 94 more rows
