포트폴리오 구성하기
…
https://mba.tuck.dartmouth.edu/pages/faculty/ken.french/data_library.html

해당 데이터를 분석하기 위해 사이트에 접속하여 데이터를 내려받아 압축을 푼 후 csv 파일을 불러오는 방법 보다는, R 내에서 데이터를 다운로드 받은 후 불러오는 것이 훨씬 효율적입니다. 또한 이미 개발된 패키지를 사용할 경우 이러한 작업을 매우 쉽게 할수도 있습니다.

https://nareal.github.io/frenchdata/articles/basic_usage.html

R에서 해당 패키지를 사용해 팩터 데이터를 다운로드 받은 후 성과를 확인해보도록 하겠습니다.

library(frenchdata)
data_sets = get_french_data_list()

data_sets$files_list

# A tibble: 297 × 3
   name                                                file_url          detai…¹
   <chr>                                               <chr>             <chr>  
 1 Fama/French 3 Factors                               ftp/F-F_Research… Data_L…
 2 Fama/French 3 Factors [Weekly]                      ftp/F-F_Research… Data_L…
 3 Fama/French 3 Factors [Daily]                       ftp/F-F_Research… Data_L…
 4 Fama/French 5 Factors (2x3)                         ftp/F-F_Research… Data_L…
 5 Fama/French 5 Factors (2x3) [Daily]                 ftp/F-F_Research… Data_L…
 6 Portfolios Formed on Size                           ftp/Portfolios_F… Data_L…
 7 Portfolios Formed on Size [ex.Dividends]            ftp/Portfolios_F… Data_L…
 8 Portfolios Formed on Size [Daily]                   ftp/Portfolios_F… Data_L…
 9 Portfolios Formed on Book-to-Market                 ftp/Portfolios_F… Data_L…
10 Portfolios Formed on Book-to-Market [ex. Dividends] ftp/Portfolios_F… Data_L…
# … with 287 more rows, and abbreviated variable name ¹​details_url
…
[1] TRUE

fs_roll = fs %>% arrange(종목코드, 계정, 기준일) %>%
  group_by(종목코드, 계정) %>%
  mutate(rollsum = roll_sum(값, n = 4, align = 'right', fill = NA)) %>%
  slice(n()) %>%
  mutate(rollsum = case_when(
    계정 %in% c('자본', '자산') ~ rollsum / 4,
    TRUE ~ rollsum
  )) %>%
  ungroup()

fs_roll

# A tibble: 11,384 × 6
   계정                     기준일        값 종목코드 공시구분 rollsum
   <chr>                    <chr>      <dbl> <chr>    <chr>      <dbl>
 1 당기순이익               2022-06-30    65 000020   q           193 
 2 매출총이익               2022-06-30   468 000020   q          1666 
 3 영업활동으로인한현금흐름 2022-06-30    48 000020   q           423 
 4 자본                     2022-06-30  3652 000020   q          3596.
 5 자산                     2022-06-30  4639 000020   q          4549 
 6 당기순이익               2022-06-30    12 000040   q          -104 
 7 매출총이익               2022-06-30    42 000040   q           158 
 8 영업활동으로인한현금흐름 2022-06-30    -2 000040   q          -130 
 9 자본                     2022-06-30   479 000040   q           492 
10 자산                     2022-06-30  1640 000040   q          1698.
# … with 11,374 more rows
…
Joining, by = "종목코드"
Joining, by = "종목코드"
Joining, by = "종목코드"
Joining, by = "종목코드"

data_bind = data_bind %>%
  mutate(SEC_NM_KOR = replace_na(SEC_NM_KOR, '기타')) %>% as_tibble()

data_bind

# A tibble: 2,294 × 30
   종목코드 종목명    시장…¹  종가 시가총액 기준…²    EPS 선행EPS    BPS 주당…³
   <chr>    <chr>     <chr>  <dbl>    <dbl> <chr>   <dbl>   <dbl>  <dbl>  <dbl>
 1 000020   동화약품  KOSPI   8650  2.42e11 2022-1…   647      NA  12534    180
 2 000040   KR모터스  KOSPI    599  5.76e10 2022-1…    NA      NA    385      0
 3 000050   경방      KOSPI  10800  2.96e11 2022-1…   872      NA  30033    125
 4 000060   메리츠화… KOSPI  29600  3.37e12 2022-1…  5768    6808  22086    620
 5 000070   삼양홀딩… KOSPI  63800  5.46e11 2022-1… 30711      NA 226314   3000
 6 000080   하이트진… KOSPI  24650  1.73e12 2022-1…  1031    1984  15657    800
 7 000100   유한양행  KOSPI  55000  4.03e12 2022-1…  1496    1673  28297    400
 8 000120   CJ대한통… KOSPI  81000  1.85e12 2022-1…  1841   10250 178766      0
 9 000140   하이트진… KOSPI  10050  2.33e11 2022-1…  1529      NA  23538    450
10 000150   두산      KOSPI  78600  1.30e12 2022-1… 11890   12800 121631   2000
# … with 2,284 more rows, 20 more variables: 종목구분 <chr>, IDX_CD <chr>,
#   CMP_KOR <chr>, SEC_NM_KOR <chr>, 기준일.y <chr>, ROE <dbl>, GPA <dbl>,
#   CFO <dbl>, DY <dbl>, PBR <dbl>, PCR <dbl>, PER <dbl>, PSR <dbl>,
#   rank_PBR <int>, rank_PER <int>, rank_PCR <int>, rank_PSR <int>,
#   rank_DY <int>, ret <dbl>, k_ratio <dbl>, and abbreviated variable names
#   ¹​시장구분, ²​기준일.x, ³​주당배당금
…
z_quality = data_bind %>% select(종목코드, SEC_NM_KOR, ROE, GPA, CFO) %>%
  group_by(SEC_NM_KOR) %>%
  mutate(across(c(ROE, GPA, CFO), .fns = ~min_rank(desc(.)), .names = "rank_{col}")) %>%  
  mutate(across(c(rank_ROE, rank_GPA, rank_CFO), .fns = ~scale(.), .names = "z_{col}")) %>%
  mutate(z_quality = rowSums(across(contains('z_rank')))) %>%
  ungroup()

data_bind = data_bind %>%
  left_join(z_quality %>% select(종목코드, z_quality))

Joining, by = "종목코드"

data_bind

# A tibble: 2,294 × 31
   종목코드 종목명    시장…¹  종가 시가총액 기준…²    EPS 선행EPS    BPS 주당…³
   <chr>    <chr>     <chr>  <dbl>    <dbl> <chr>   <dbl>   <dbl>  <dbl>  <dbl>
 1 000020   동화약품  KOSPI   8650  2.42e11 2022-1…   647      NA  12534    180
 2 000040   KR모터스  KOSPI    599  5.76e10 2022-1…    NA      NA    385      0
 3 000050   경방      KOSPI  10800  2.96e11 2022-1…   872      NA  30033    125
 4 000060   메리츠화… KOSPI  29600  3.37e12 2022-1…  5768    6808  22086    620
 5 000070   삼양홀딩… KOSPI  63800  5.46e11 2022-1… 30711      NA 226314   3000
 6 000080   하이트진… KOSPI  24650  1.73e12 2022-1…  1031    1984  15657    800
 7 000100   유한양행  KOSPI  55000  4.03e12 2022-1…  1496    1673  28297    400
 8 000120   CJ대한통… KOSPI  81000  1.85e12 2022-1…  1841   10250 178766      0
 9 000140   하이트진… KOSPI  10050  2.33e11 2022-1…  1529      NA  23538    450
10 000150   두산      KOSPI  78600  1.30e12 2022-1… 11890   12800 121631   2000
# … with 2,284 more rows, 21 more variables: 종목구분 <chr>, IDX_CD <chr>,
#   CMP_KOR <chr>, SEC_NM_KOR <chr>, 기준일.y <chr>, ROE <dbl>, GPA <dbl>,
#   CFO <dbl>, DY <dbl>, PBR <dbl>, PCR <dbl>, PER <dbl>, PSR <dbl>,
#   rank_PBR <int>, rank_PER <int>, rank_PCR <int>, rank_PSR <int>,
#   rank_DY <int>, ret <dbl>, k_ratio <dbl>, z_quality <dbl>, and abbreviated
#   variable names ¹​시장구분, ²​기준일.x, ³​주당배당금
…
