R 기초 배우기
…
    group_rows

The following objects are masked from 'package:stats':

    filter, lag

The following objects are masked from 'package:base':

    intersect, setdiff, setequal, union

library(nycflights13)

flights

# A tibble: 336,776 × 19
    year month   day dep_time sched_de…¹ dep_d…² arr_t…³ sched…⁴ arr_d…⁵ carrier
   <int> <int> <int>    <int>      <int>   <dbl>   <int>   <int>   <dbl> <chr>  
 1  2013     1     1      517        515       2     830     819      11 UA     
 2  2013     1     1      533        529       4     850     830      20 UA     
 3  2013     1     1      542        540       2     923     850      33 AA     
 4  2013     1     1      544        545      -1    1004    1022     -18 B6     
 5  2013     1     1      554        600      -6     812     837     -25 DL     
 6  2013     1     1      554        558      -4     740     728      12 UA     
 7  2013     1     1      555        600      -5     913     854      19 B6     
 8  2013     1     1      557        600      -3     709     723     -14 EV     
 9  2013     1     1      557        600      -3     838     846      -8 B6     
10  2013     1     1      558        600      -2     753     745       8 AA     
# … with 336,766 more rows, 9 more variables: flight <int>, tailnum <chr>,
#   origin <chr>, dest <chr>, air_time <dbl>, distance <dbl>, hour <dbl>,
#   minute <dbl>, time_hour <dttm>, and abbreviated variable names
#   ¹​sched_dep_time, ²​dep_delay, ³​arr_time, ⁴​sched_arr_time, ⁵​arr_delay
…
해당 데이터는 그룹별로 묶여 있으므로, summarise() 함수를 적용하면 각 그룹(year, month, day) 별로 dep_delay의 평균을 구합니다.

flights %>% group_by(dest) %>%
  summarize(
    count = n(),
    dist = mean(distance, na.rm = TRUE),
    delay = mean(arr_delay, na.rm = TRUE)
)

# A tibble: 105 × 4
   dest  count  dist delay
   <chr> <int> <dbl> <dbl>
 1 ABQ     254 1826   4.38
 2 ACK     265  199   4.85
 3 ALB     439  143  14.4 
 4 ANC       8 3370  -2.5 
 5 ATL   17215  757. 11.3 
 6 AUS    2439 1514.  6.02
 7 AVL     275  584.  8.00
 8 BDL     443  116   7.05
 9 BGR     375  378   8.03
10 BHM     297  866. 16.9 
# … with 95 more rows
…
mutate() 함수는 원하는 형태로 열을 생성하거나 변형하는 함수입니다. 위 예제에 서는 먼저 PBR과 PER 열을 as.numeric() 함수를 통해 숫자형으로 변경한 후 PBR을 PER로 나눈 값을 ROE 열에 생성합니다. 그 후 round() 함수를 통해 ROE 값을 반올림하며, ifelse() 함수를 통해 시가총액의 중앙값보다 큰 기업은 big, 아닐 경우 small임을 size 열에 저장합니다.

이 외에도 mutate() 함수 내에 across() 함수를 사용해 각 상황에 맞게 데이터를 변형할 수 있습니다.

data_market %>%
  mutate(across(where(is.numeric), ~.x * 100))

# A tibble: 2,237 × 28
   종목코드 종목명        종가   대비 등락률 시장…¹ 업종명   시가…²    EPS   PER
   <chr>    <chr>        <dbl>  <dbl>  <dbl> <chr>  <chr>     <dbl>  <dbl> <dbl>
 1 005930   삼성전자    7.04e6 -1.1e5   -154 KOSPI  전기전… 4.20e16 384100  1833
 2 000660   SK하이닉스  1.06e7 -2  e5   -186 KOSPI  전기전… 7.68e15 695200  1518
 3 035420   NAVER       4.03e7 -7.5e5   -183 KOSPI  서비스… 6.61e15 687700  5853
 4 207940   삼성바이오… 8.74e7  0          0 KOSPI  의약품  5.78e15 364200 23998
 5 035720   카카오      1.25e7 -3.5e5   -273 KOSPI  서비스… 5.54e15  36900 33740
 6 051910   LG화학      7.84e7 -4.7e6   -566 KOSPI  화학    5.53e15 666600 11761
 7 006400   삼성SDI     7.32e7  1  e5     14 KOSPI  전기전… 5.03e15 859300  8519
 8 005380   현대차      2.08e7 -1.5e5    -71 KOSPI  운수장… 4.45e15 545400  3823
 9 000270   기아        8.5 e6 -1  e5   -116 KOSPI  운수장… 3.45e15 371000  2291
10 068270   셀트리온    2.1 e7  3.5e5    169 KOSPI  의약품  2.90e15 375600  5591
# … with 2,227 more rows, 18 more variables: BPS <dbl>, PBR <dbl>,
#   주당배당금 <dbl>, `배당수익률(%)` <dbl>, IDX_CD <chr>, IDX_NM_KOR <chr>,
#   ALL_MKT_VAL <dbl>, MKT_VAL <dbl>, WGT <dbl>, S_WGT <dbl>, CAL_WGT <dbl>,
#   SEC_CD <chr>, SEC_NM_KOR <chr>, SEQ <dbl>, TOP60 <dbl>, APT_SHR_CNT <dbl>,
#   ROE <dbl>, size <chr>, and abbreviated variable names ¹​시장구분, ²​시가총액

across(where(is.numeric)를 통해 숫자에 해당하는 열만 선택하고, 해당 값들에 100을 곱합니다.

filter()

data_market %>%
  select(종목명, PBR) %>%
  filter(PBR < 1) 

# A tibble: 612 × 2
   종목명         PBR
   <chr>        <dbl>
 1 현대차        0.83
 2 POSCO         0.59
 3 현대모비스    0.72
 4 KB금융        0.54
 5 삼성물산      0.73
 6 신한지주      0.46
 7 LG            0.8 
 8 한국전력      0.21
 9 삼성생명      0.32
10 하나금융지주  0.43
# … with 602 more rows
…
위 예제는 섹터를 기준으로 데이터를 묶은 후 summarize()를 통해 각 섹터에 속하는 종목의 PBR 중앙값을 구한 후 정렬했습니다.

data_market %>%
  group_by(`시장구분`, `SEC_NM_KOR`) %>%
  summarize(PBR_median = median(PBR, na.rm = TRUE)) %>%
  arrange(PBR_median)

`summarise()` has grouped output by '시장구분'. You can override using the
`.groups` argument.

# A tibble: 22 × 3
# Groups:   시장구분 [2]
   시장구분 SEC_NM_KOR     PBR_median
   <chr>    <chr>               <dbl>
 1 KOSPI    금융                0.62 
 2 KOSPI    유틸리티            0.65 
 3 KOSPI    필수소비재          0.825
 4 KOSPI    에너지              0.87 
 5 KOSPI    경기관련소비재      1.02 
 6 KOSPI    산업재              1.02 
 7 KOSPI    소재                1.07 
 8 KOSDAQ   유틸리티            1.34 
 9 KOSDAQ   소재                1.42 
10 KOSDAQ   산업재              1.45 
# … with 12 more rows
…
